<?xml version="1.0" encoding="UTF-8" standalone="no"?>
<svg
   xmlns:dc="http://purl.org/dc/elements/1.1/"
   xmlns:cc="http://creativecommons.org/ns#"
   xmlns:rdf="http://www.w3.org/1999/02/22-rdf-syntax-ns#"
   xmlns:svg="http://www.w3.org/2000/svg"
   xmlns="http://www.w3.org/2000/svg"
   id="svg8"
   version="1.1"
   viewBox="0 0 54.504169 110.59583"
   height="110.59583mm"
   width="54.504169mm">
  <defs
     id="defs2" />
  <metadata
     id="metadata5">
    <rdf:RDF>
      <cc:Work
         rdf:about="">
        <dc:format>image/svg+xml</dc:format>
        <dc:type
           rdf:resource="http://purl.org/dc/dcmitype/StillImage" />
        <dc:title></dc:title>
      </cc:Work>
    </rdf:RDF>
  </metadata>
  <g
     transform="translate(-31.75,-69.231537)"
     id="layer1">
    <rect
       y="153.36903"
       x="31.75"
       height="26.458332"
       width="26.458332"
       id="rect4487"
       style="fill:#000000;fill-opacity:1;stroke:none;stroke-width:6.54799986;stroke-miterlimit:4;stroke-dasharray:none;stroke-opacity:1" />
    <rect
       style="fill:#000000;fill-opacity:1;stroke:none;stroke-width:6.54799986;stroke-miterlimit:4;stroke-dasharray:none;stroke-opacity:1"
       id="rect4489"
       width="26.458332"
       height="26.458332"
       x="31.75"
       y="125.32317" />
    <rect
       style="fill:#000000;fill-opacity:1;stroke:none;stroke-width:6.54799986;stroke-miterlimit:4;stroke-dasharray:none;stroke-opacity:1"
       id="rect4491"
       width="26.458332"
       height="26.458332"
       x="31.75"
       y="97.277351" />
    <rect
       y="69.231537"
       x="31.75"
       height="26.458332"
       width="26.458332"
       id="rect4493"
       style="fill:#000000;fill-opacity:1;stroke:none;stroke-width:6.54799986;stroke-miterlimit:4;stroke-dasharray:none;stroke-opacity:1" />
    <rect
       style="fill:#000000;fill-opacity:1;stroke:none;stroke-width:6.54799986;stroke-miterlimit:4;stroke-dasharray:none;stroke-opacity:1"
       id="rect4495"
       width="26.458332"
       height="26.458332"
       x="59.795837"
       y="153.36903" />
    <rect
       y="125.32317"
       x="59.795837"
       height="26.458332"
       width="26.458332"
       id="rect4497"
       style="fill:#000000;fill-opacity:1;stroke:none;stroke-width:6.54799986;stroke-miterlimit:4;stroke-dasharray:none;stroke-opacity:1" />
    <rect
       y="97.277351"
       x="59.795837"
       height="26.458332"
       width="26.458332"
       id="rect4499"
       style="fill:#000000;fill-opacity:1;stroke:none;stroke-width:6.54799986;stroke-miterlimit:4;stroke-dasharray:none;stroke-opacity:1" />
    <rect
       style="fill:#000000;fill-opacity:1;stroke:none;stroke-width:6.54799986;stroke-miterlimit:4;stroke-dasharray:none;stroke-opacity:1"
       id="rect4501"
       width="26.458332"
       height="26.458332"
       x="59.795837"
       y="69.231537" />
  </g>
</svg>
